…
Thus type recipes are a very convenient way to plot a specialized type which
requires no more intervention!

### Using Plot Recipes

StatsPlots.jl adds the `marginhist` multiplot via a plot recipe. 

```julia
julia> df = DataFrame(x = randn(1000), y = randn(1000))
1000×2 DataFrame
  Row │ x           y
      │ Float64     Float64
──────┼────────────────────────
    1 │ -0.330133    0.332644
    2 │  0.42702    -0.191715
    3 │ -0.479123   -0.720681
    4 │ -1.22383     1.02316
    5 │  0.358909   -0.421797
    6 │  1.02341     0.32075
    7 │  1.1735     -1.26166
    8 │  2.2291      0.660178
  ⋮   │     ⋮           ⋮
  994 │  0.128496   -1.62802
  995 │ -0.718981    0.0481539
  996 │ -1.19419    -0.313739
  997 │ -0.227794   -1.34697
  998 │  1.11294     0.502029
  999 │  0.178576    0.561966
 1000 │  1.06783     1.19604
               985 rows omitted
…
```julia
julia> using RDatasets

julia> school = RDatasets.dataset("mlmRev","Hsb82")
7185×8 DataFrame
  Row │ School  Minrty  Sx      SSS      MAch     MeanSES    Sector    CSES    ⋯
      │ Cat…    Cat…    Cat…    Float64  Float64  Float64    Cat…      Float64 ⋯
──────┼─────────────────────────────────────────────────────────────────────────
    1 │ 1224    No      Female   -1.528    5.876  -0.434383  Public    -1.0936 ⋯
    2 │ 1224    No      Female   -0.588   19.708  -0.434383  Public    -0.1536
    3 │ 1224    No      Male     -0.528   20.349  -0.434383  Public    -0.0936
    4 │ 1224    No      Male     -0.668    8.781  -0.434383  Public    -0.2336
    5 │ 1224    No      Male     -0.158   17.898  -0.434383  Public     0.2763 ⋯
    6 │ 1224    No      Male      0.022    4.583  -0.434383  Public     0.4563
    7 │ 1224    No      Female   -0.618   -2.832  -0.434383  Public    -0.1836
    8 │ 1224    No      Male     -0.998    0.523  -0.434383  Public    -0.5636
  ⋮   │   ⋮       ⋮       ⋮        ⋮        ⋮         ⋮         ⋮          ⋮   ⋱
 7179 │ 9586    No      Female    1.022   22.78    0.621153  Catholic   0.4008 ⋯
 7180 │ 9586    Yes     Female    1.612   20.967   0.621153  Catholic   0.9908
 7181 │ 9586    No      Female    1.512   20.402   0.621153  Catholic   0.8908
 7182 │ 9586    No      Female   -0.038   14.794   0.621153  Catholic  -0.6591
 7183 │ 9586    No      Female    1.332   19.641   0.621153  Catholic   0.7108 ⋯
 7184 │ 9586    No      Female   -0.008   16.241   0.621153  Catholic  -0.6291
 7185 │ 9586    No      Female    0.792   22.733   0.621153  Catholic   0.1708
                                                  1 column and 7170 rows omitted
…
Asymmetric violin or dot plots can be created using the `side` keyword (`:both` - default,`:right` or `:left`):

```julia
julia> singers = RDatasets.dataset("lattice", "singer")
235×2 DataFrame
 Row │ Height  VoicePart
     │ Int32   Cat…
─────┼───────────────────
   1 │     64  Soprano 1
   2 │     62  Soprano 1
   3 │     66  Soprano 1
   4 │     65  Soprano 1
   5 │     60  Soprano 1
   6 │     61  Soprano 1
   7 │     65  Soprano 1
   8 │     66  Soprano 1
  ⋮  │   ⋮         ⋮
 229 │     70  Bass 2
 230 │     70  Bass 2
 231 │     69  Bass 2
 232 │     72  Bass 2
 233 │     71  Bass 2
 234 │     74  Bass 2
 235 │     75  Bass 2
         220 rows omitted

julia> singers_moscow = deepcopy(singers)
235×2 DataFrame
 Row │ Height  VoicePart
     │ Int32   Cat…
─────┼───────────────────
   1 │     64  Soprano 1
   2 │     62  Soprano 1
   3 │     66  Soprano 1
   4 │     65  Soprano 1
   5 │     60  Soprano 1
   6 │     61  Soprano 1
   7 │     65  Soprano 1
   8 │     66  Soprano 1
  ⋮  │   ⋮         ⋮
 229 │     70  Bass 2
 230 │     70  Bass 2
 231 │     69  Bass 2
 232 │     72  Bass 2
 233 │     71  Bass 2
 234 │     74  Bass 2
 235 │     75  Bass 2
         220 rows omitted
…
## AndrewsPlot

[AndrewsPlots](https://en.wikipedia.org/wiki/Andrews_plot) are a way to visualize structure in high-dimensional data by depicting each row of an array or table as a line that varies with the values in columns. 

```julia
julia> iris = dataset("datasets", "iris")
150×5 DataFrame
 Row │ SepalLength  SepalWidth  PetalLength  PetalWidth  Species
     │ Float64      Float64     Float64      Float64     Cat…
─────┼─────────────────────────────────────────────────────────────
   1 │         5.1         3.5          1.4         0.2  setosa
   2 │         4.9         3.0          1.4         0.2  setosa
   3 │         4.7         3.2          1.3         0.2  setosa
   4 │         4.6         3.1          1.5         0.2  setosa
   5 │         5.0         3.6          1.4         0.2  setosa
   6 │         5.4         3.9          1.7         0.4  setosa
   7 │         4.6         3.4          1.4         0.3  setosa
   8 │         5.0         3.4          1.5         0.2  setosa
  ⋮  │      ⋮           ⋮            ⋮           ⋮           ⋮
 144 │         6.8         3.2          5.9         2.3  virginica
 145 │         6.7         3.3          5.7         2.5  virginica
 146 │         6.7         3.0          5.2         2.3  virginica
 147 │         6.3         2.5          5.0         1.9  virginica
 148 │         6.5         3.0          5.2         2.0  virginica
 149 │         6.2         3.4          5.4         2.3  virginica
 150 │         5.9         3.0          5.1         1.8  virginica
                                                   135 rows omitted
…
