…
## Working with tabular data



There are multiple packages supporting tabular data for the Julia language.
Here we will show how DataFrames.jl package can be used.

```julia
julia> using DataFrames

julia> df = DataFrame(x=y, y=y)
100×2 DataFrame
 Row │ x            y
     │ Float64      Float64
─────┼──────────────────────────
   1 │  1.08579      1.08579
   2 │ -1.57656     -1.57656
   3 │  0.17594      0.17594
   4 │  0.865381     0.865381
   5 │ -1.18868     -1.18868
   6 │  0.787827     0.787827
   7 │  1.17803      1.17803
   8 │  0.385512     0.385512
  ⋮  │      ⋮            ⋮
  94 │ -0.917673    -0.917673
  95 │  0.625865     0.625865
  96 │ -0.069387    -0.069387
  97 │ -0.39152     -0.39152
  98 │  0.584412     0.584412
  99 │ -0.0313159   -0.0313159
 100 │ -0.753134    -0.753134
                 85 rows omitted
…
