…
using `eltype` on `eachcol(x)` returns element types of columns:

```julia
julia> eltype.(eachcol(x))
3-element Vector{Type}:
 Int64
 Union{Missing, Float64}
 String
```

Here we create some large `DataFrame`

```julia
julia> y = DataFrame(rand(1:10, 1000, 10), :auto)
1000×10 DataFrame
  Row │ x1     x2     x3     x4     x5     x6     x7     x8     x9     x10
      │ Int64  Int64  Int64  Int64  Int64  Int64  Int64  Int64  Int64  Int64
──────┼──────────────────────────────────────────────────────────────────────
    1 │     3      8      5      3      1      6      1      8     10      1
    2 │     8      8     10      6      3     10      5      8      6      9
    3 │     3      6     10      6      9      2      9      7      1      9
    4 │     6      5      4      8      9      8      3      9      6      1
    5 │     3      3     10     10      9      6      8      7      9      3
    6 │     3      4      1      4      1      2      9      2      4      6
    7 │     5      7      7      6      7      8      5      7      4      2
    8 │     8     10      1      2      3      6      7      4      7      4
  ⋮   │   ⋮      ⋮      ⋮      ⋮      ⋮      ⋮      ⋮      ⋮      ⋮      ⋮
  994 │     2      4      4      8      8      5      7     10     10      3
  995 │     8      9      9      7      4      6     10      8      2      2
  996 │     8     10      9     10      9      3      2     10      3      1
  997 │     9      2     10      5      8     10      4      5      5      6
  998 │     4      9      7      6      6      3      6      6      5      4
  999 │     1      8     10      2      8      4      4     10      5      4
 1000 │     1      2      9      6      5      2      3      2      9      8
                                                             985 rows omitted
```
…
