…
julia> y2.A[1] = false
false
```


### Basic bechmarking
Next, we'll create some files, so be careful that you don't already have these files in your working directory!
In particular, we'll time how long it takes us to write a `DataFrame` with 10^3 rows and 10^5 columns.

```julia
julia> bigdf = DataFrame(rand(Bool, 10^5, 1000), :auto)
100000×1000 DataFrame
    Row │ x1     x2     x3     x4     x5     x6     x7     x8     x9     x10   ⋯
        │ Bool   Bool   Bool   Bool   Bool   Bool   Bool   Bool   Bool   Bool  ⋯
────────┼───────────────────────────────────────────────────────────────────────
      1 │  true   true   true   true  false  false  false  false   true  false ⋯
      2 │ false  false  false  false  false  false   true  false  false  false
      3 │ false  false  false   true  false   true  false  false  false  false
      4 │ false   true   true  false  false   true   true   true   true   true
      5 │  true  false  false   true   true  false  false  false   true  false ⋯
      6 │  true  false  false   true   true   true   true  false   true  false
      7 │ false  false   true  false   true  false  false   true   true   true
      8 │  true  false  false  false   true   true   true  false  false  false
   ⋮    │   ⋮      ⋮      ⋮      ⋮      ⋮      ⋮      ⋮      ⋮      ⋮      ⋮   ⋱
  99994 │ false  false   true   true   true  false   true  false  false  false ⋯
  99995 │ false   true  false   true  false   true  false  false  false  false
  99996 │ false   true   true  false  false   true  false  false   true   true
  99997 │ false  false  false  false   true  false  false  false  false   true
  99998 │ false   true   true   true   true  false   true   true   true   true ⋯
  99999 │ false  false  false   true  false  false  false  false   true  false
 100000 │  true   true   true  false  false  false  false   true  false   true
                                              990 columns and 99985 rows omitted
…
