…
standard `repeat` function works on rows; also `inner` and `outer` keyword arguments are accepted

```julia
julia> repeat(x, 2)
18×5 DataFrame
 Row │ x1        x2        x3        x4         x5
     │ Float64   Float64   Float64   Float64    Float64
─────┼───────────────────────────────────────────────────
   1 │ 0.926134  0.992654  0.683445  0.132017   0.118531
   2 │ 0.524474  0.39618   0.619288  0.0316353  0.279868
   3 │ 0.195147  0.790216  0.729115  0.133245   0.516307
   4 │ 0.926134  0.992654  0.683445  0.132017   0.118531
   5 │ 0.524474  0.39618   0.619288  0.0316353  0.279868
   6 │ 0.195147  0.790216  0.729115  0.133245   0.516307
   7 │ 0.926134  0.992654  0.683445  0.132017   0.118531
   8 │ 0.524474  0.39618   0.619288  0.0316353  0.279868
  ⋮  │    ⋮         ⋮         ⋮          ⋮         ⋮
  12 │ 0.195147  0.790216  0.729115  0.133245   0.516307
  13 │ 0.926134  0.992654  0.683445  0.132017   0.118531
  14 │ 0.524474  0.39618   0.619288  0.0316353  0.279868
  15 │ 0.195147  0.790216  0.729115  0.133245   0.516307
  16 │ 0.926134  0.992654  0.683445  0.132017   0.118531
  17 │ 0.524474  0.39618   0.619288  0.0316353  0.279868
  18 │ 0.195147  0.790216  0.729115  0.133245   0.516307
                                           3 rows omitted
```
…
