…
### Performing transformations by group using `combine`, `select`, `select!`, `transform`, and `transform!`

```julia
julia> using Statistics

julia> using Pipe

julia> # ENV["LINES"] = 15 # reduce the number of rows in the output
       x = DataFrame(id=rand('a':'d', 100), v=rand(100))
100×2 DataFrame
 Row │ id    v
     │ Char  Float64
─────┼─────────────────
   1 │ a     0.87743
   2 │ a     0.399395
   3 │ a     0.553806
   4 │ b     0.0605387
   5 │ d     0.914898
   6 │ a     0.676006
   7 │ c     0.416111
   8 │ a     0.402844
  ⋮  │  ⋮        ⋮
  94 │ b     0.328505
  95 │ a     0.0152568
  96 │ d     0.833487
  97 │ a     0.468008
  98 │ b     0.439362
  99 │ a     0.049321
 100 │ a     0.341828
        85 rows omitted

julia> # apply a function to each group of a data frame
       # combine keeps as many rows as are returned from the function
       @pipe x |> groupby(_, :id) |> combine(_, :v=>mean)
4×2 DataFrame
 Row │ id    v_mean
     │ Char  Float64
─────┼────────────────
   1 │ a     0.570961
   2 │ b     0.456567
   3 │ d     0.511691
   4 │ c     0.384864

julia> a = groupby(x, :id)
GroupedDataFrame with 4 groups based on key: id
First Group (30 rows): id = 'a'
 Row │ id    v
     │ Char  Float64
─────┼─────────────────
   1 │ a     0.87743
   2 │ a     0.399395
   3 │ a     0.553806
   4 │ a     0.676006
   5 │ a     0.402844
   6 │ a     0.951736
   7 │ a     0.208852
   8 │ a     0.991147
  ⋮  │  ⋮        ⋮
  23 │ a     0.913868
  24 │ a     0.342693
  25 │ a     0.535416
  26 │ a     0.575342
  27 │ a     0.0152568
  28 │ a     0.468008
  29 │ a     0.049321
  30 │ a     0.341828
        14 rows omitted
…
julia> x.id2 = axes(x, 1)
Base.OneTo(100)

julia> # select and transform keep as many rows as are in the source data frame and in correct order
       # additionally transform keeps all columns from the source
       @pipe x |> groupby(_, :id) |> transform(_, :v=>mean)
100×4 DataFrame
 Row │ id    v          id2    v_mean
     │ Char  Float64    Int64  Float64
─────┼──────────────────────────────────
   1 │ a     0.87743        1  0.570961
   2 │ a     0.399395       2  0.570961
   3 │ a     0.553806       3  0.570961
   4 │ b     0.0605387      4  0.456567
   5 │ d     0.914898       5  0.511691
   6 │ a     0.676006       6  0.570961
   7 │ c     0.416111       7  0.384864
   8 │ a     0.402844       8  0.570961
  ⋮  │  ⋮        ⋮        ⋮       ⋮
  94 │ b     0.328505      94  0.456567
  95 │ a     0.0152568     95  0.570961
  96 │ d     0.833487      96  0.511691
  97 │ a     0.468008      97  0.570961
  98 │ b     0.439362      98  0.456567
  99 │ a     0.049321      99  0.570961
 100 │ a     0.341828     100  0.570961
                         85 rows omitted
…
julia> transform(a, :v=>mean)
100×4 DataFrame
 Row │ id    v          id2    v_mean
     │ Char  Float64    Int64  Float64
─────┼──────────────────────────────────
   1 │ a     0.87743        1  0.570961
   2 │ a     0.399395       2  0.570961
   3 │ a     0.553806       3  0.570961
   4 │ b     0.0605387      4  0.456567
   5 │ d     0.914898       5  0.511691
   6 │ a     0.676006       6  0.570961
   7 │ c     0.416111       7  0.384864
   8 │ a     0.402844       8  0.570961
  ⋮  │  ⋮        ⋮        ⋮       ⋮
  94 │ b     0.328505      94  0.456567
  95 │ a     0.0152568     95  0.570961
  96 │ d     0.833487      96  0.511691
  97 │ a     0.468008      97  0.570961
  98 │ b     0.439362      98  0.456567
  99 │ a     0.049321      99  0.570961
 100 │ a     0.341828     100  0.570961
                         85 rows omitted

julia> # note that combine reorders rows by group of GroupedDataFrame
       @pipe x |> groupby(_, :id) |> combine(_, :id2, :v=>mean)
100×3 DataFrame
 Row │ id    id2    v_mean
     │ Char  Int64  Float64
─────┼───────────────────────
   1 │ a         1  0.570961
   2 │ a         2  0.570961
   3 │ a         3  0.570961
   4 │ a         6  0.570961
   5 │ a         8  0.570961
   6 │ a         9  0.570961
   7 │ a        16  0.570961
   8 │ a        22  0.570961
  ⋮  │  ⋮      ⋮       ⋮
  94 │ c        57  0.384864
  95 │ c        58  0.384864
  96 │ c        63  0.384864
  97 │ c        67  0.384864
  98 │ c        72  0.384864
  99 │ c        81  0.384864
 100 │ c        91  0.384864
              85 rows omitted
…
julia> combine(a, :id2, :v=>mean)
100×3 DataFrame
 Row │ id    id2    v_mean
     │ Char  Int64  Float64
─────┼───────────────────────
   1 │ a         1  0.570961
   2 │ a         2  0.570961
   3 │ a         3  0.570961
   4 │ a         6  0.570961
   5 │ a         8  0.570961
   6 │ a         9  0.570961
   7 │ a        16  0.570961
   8 │ a        22  0.570961
  ⋮  │  ⋮      ⋮       ⋮
  94 │ c        57  0.384864
  95 │ c        58  0.384864
  96 │ c        63  0.384864
  97 │ c        67  0.384864
  98 │ c        72  0.384864
  99 │ c        81  0.384864
 100 │ c        91  0.384864
              85 rows omitted

julia> # we give a custom name for the result column
       @pipe x |> groupby(_, :id) |> combine(_, :v=>mean=>:res)
4×2 DataFrame
 Row │ id    res
     │ Char  Float64
─────┼────────────────
   1 │ a     0.570961
   2 │ b     0.456567
   3 │ d     0.511691
   4 │ c     0.384864

julia> a = groupby(x, :id)
GroupedDataFrame with 4 groups based on key: id
First Group (30 rows): id = 'a'
 Row │ id    v          id2
     │ Char  Float64    Int64
─────┼────────────────────────
   1 │ a     0.87743        1
   2 │ a     0.399395       2
   3 │ a     0.553806       3
   4 │ a     0.676006       6
   5 │ a     0.402844       8
   6 │ a     0.951736       9
   7 │ a     0.208852      16
   8 │ a     0.991147      22
  ⋮  │  ⋮        ⋮        ⋮
  23 │ a     0.913868      82
  24 │ a     0.342693      83
  25 │ a     0.535416      86
  26 │ a     0.575342      90
  27 │ a     0.0152568     95
  28 │ a     0.468008      97
  29 │ a     0.049321      99
  30 │ a     0.341828     100
               14 rows omitted
…
julia> combine(a, :v=>mean=>:res)
4×2 DataFrame
 Row │ id    res
     │ Char  Float64
─────┼────────────────
   1 │ a     0.570961
   2 │ b     0.456567
   3 │ d     0.511691
   4 │ c     0.384864

julia> # you can have multiple operations
       @pipe x |> groupby(_, :id) |> combine(_, :v=>mean=>:res1, :v=>sum=>:res2, nrow=>:n)
4×4 DataFrame
 Row │ id    res1      res2      n
     │ Char  Float64   Float64   Int64
─────┼─────────────────────────────────
   1 │ a     0.570961  17.1288      30
   2 │ b     0.456567  11.8707      26
   3 │ d     0.511691  14.3273      28
   4 │ c     0.384864   6.15782     16

julia> a = groupby(x, :id)
GroupedDataFrame with 4 groups based on key: id
First Group (30 rows): id = 'a'
 Row │ id    v          id2
     │ Char  Float64    Int64
─────┼────────────────────────
   1 │ a     0.87743        1
   2 │ a     0.399395       2
   3 │ a     0.553806       3
   4 │ a     0.676006       6
   5 │ a     0.402844       8
   6 │ a     0.951736       9
   7 │ a     0.208852      16
   8 │ a     0.991147      22
  ⋮  │  ⋮        ⋮        ⋮
  23 │ a     0.913868      82
  24 │ a     0.342693      83
  25 │ a     0.535416      86
  26 │ a     0.575342      90
  27 │ a     0.0152568     95
  28 │ a     0.468008      97
  29 │ a     0.049321      99
  30 │ a     0.341828     100
               14 rows omitted
…
